%YAML 1.1
%TAG !u! tag:unity3d.com,2011:
--- !u!1045 &1
EditorBuildSettings:
  m_ObjectHideFlags: 0
  serializedVersion: 2
  m_Scenes:
  - enabled: 1
    path: Assets/Scenes/Title.unity
    guid: 849247897fa5240e1920eeda8260da7c
  - enabled: 1
    path: Assets/Scenes/SampleScene.unity
    guid: 6477edf45ea574277bd63b62e1f6fb05
  - enabled: 1
    path: Assets/Scenes/GameOver.unity
    guid: 2afc3a825cb654832b95bf449dd6cdb0
  - enabled: 1
    path: Assets/Scenes/Win.unity
    guid: ec36d3d926f6042508a00643572c82f4
  m_configObjects: {}
